{
  "transactions": [
    {
      "id": 21271018,
      "parentId": null,
      "accountId": 40345,
      "valueDate": "2014-04-25 00:00:00.000",
      "bankBookingDate": "2014-04-25 00:00:00.000",
      "finapiBookingDate": "2014-04-25 00:00:00.000",
      "amount": -89.81,
      "purpose": "RE. 745259",
      "counterpartName": "TueV Bayern",
      "counterpartAccountNumber": "611105",
      "counterpartIban": null,
      "counterpartBlz": "70080000",
      "counterpartBic": null,
      "counterpartBankName": "Commerzbank vormals Dresdner Bank",
      "counterpartMandateReference": null,
      "counterpartCustomerReference": null,
      "counterpartCreditorId": null,
      "type": "Überweisungsauftrag",
      "typeCodeZka": null,
      "typeCodeSwift": null,
      "primanota": null,
      "category": {
        "id": 524,
        "name": "KFZ-Sonstige",
        "parentId": 301,
        "parentName": "Mobilität",
        "isCustom": false,
        "children": null
      },
      "labels": [],
      "isPotentialDuplicate": false,
      "isNew": true,
      "importDate": "2017-05-10 17:18:41.000",
      "children": null
    },
    {
      "id": 21271019,
      "parentId": null,
      "accountId": 40345,
      "valueDate": "2014-08-25 00:00:00.000",
      "bankBookingDate": "2014-08-25 00:00:00.000",
      "finapiBookingDate": "2014-08-25 00:00:00.000",
      "amount": -89.81,
      "purpose": "RE. 745259",
      "counterpartName": "TueV Bayern",
      "counterpartAccountNumber": "611105",
      "counterpartIban": null,
      "counterpartBlz": "70080000",
      "counterpartBic": null,
      "counterpartBankName": "Commerzbank vormals Dresdner Bank",
      "counterpartMandateReference": null,
      "counterpartCustomerReference": null,
      "counterpartCreditorId": null,
      "type": "Überweisungsauftrag",
      "typeCodeZka": null,
      "typeCodeSwift": null,
      "primanota": null,
      "category": {
        "id": 524,
        "name": "KFZ-Sonstige",
        "parentId": 301,
        "parentName": "Mobilität",
        "isCustom": false,
        "children": null
      },
      "labels": [],
      "isPotentialDuplicate": false,
      "isNew": true,
      "importDate": "2017-05-10 17:18:41.000",
      "children": null
    },
    {
      "id": 21271020,
      "parentId": null,
      "accountId": 40345,
      "valueDate": "2014-12-26 00:00:00.000",
      "bankBookingDate": "2014-12-26 00:00:00.000",
      "finapiBookingDate": "2014-12-26 00:00:00.000",
      "amount": -349,
      "purpose": "Kreditkartenabr.",
      "counterpartName": "Bankhaus Max Flessa und Co",
      "counterpartAccountNumber": "1444430",
      "counterpartIban": null,
      "counterpartBlz": "70080000",
      "counterpartBic": null,
      "counterpartBankName": "Commerzbank vormals Dresdner Bank",
      "counterpartMandateReference": null,
      "counterpartCustomerReference": null,
      "counterpartCreditorId": null,
      "type": "Überweisungsauftrag",
      "typeCodeZka": null,
      "typeCodeSwift": null,
      "primanota": null,
      "category": {
        "id": 340,
        "name": "Kreditkartenabrechnung",
        "parentId": 333,
        "parentName": "Bank & Kredit",
        "isCustom": false,
        "children": null
      },
      "labels": [],
      "isPotentialDuplicate": false,
      "isNew": true,
      "importDate": "2017-05-10 17:18:41.000",
      "children": null
    },
    {
      "id": 21271021,
      "parentId": null,
      "accountId": 40345,
      "valueDate": "2014-12-27 00:00:00.000",
      "bankBookingDate": "2014-12-27 00:00:00.000",
      "finapiBookingDate": "2014-12-27 00:00:00.000",
      "amount": -264.21,
      "purpose": "Vielen Dank",
      "counterpartName": "Hackerhaus an der Oper",
      "counterpartAccountNumber": "1245155",
      "counterpartIban": null,
      "counterpartBlz": "70080000",
      "counterpartBic": null,
      "counterpartBankName": "Commerzbank vormals Dresdner Bank",
      "counterpartMandateReference": null,
      "counterpartCustomerReference": null,
      "counterpartCreditorId": null,
      "type": "Überweisungsauftrag",
      "typeCodeZka": null,
      "typeCodeSwift": null,
      "primanota": null,
      "category": {
        "id": 535,
        "name": "Freizeitaktivitäten",
        "parentId": 373,
        "parentName": "Freizeit, Hobbies & Soziales",
        "isCustom": false,
        "children": null
      },
      "labels": [],
      "isPotentialDuplicate": false,
      "isNew": true,
      "importDate": "2017-05-10 17:18:41.000",
      "children": null
    },
    {
      "id": 21271022,
      "parentId": null,
      "accountId": 40345,
      "valueDate": "2014-12-27 00:00:00.000",
      "bankBookingDate": "2014-12-27 00:00:00.000",
      "finapiBookingDate": "2014-12-27 00:00:00.000",
      "amount": -24.48,
      "purpose": "ZAHLBELEG 378896249168",
      "counterpartName": "TELEKOM DEUTSCHLAND GMBH",
      "counterpartAccountNumber": "1333320",
      "counterpartIban": null,
      "counterpartBlz": "70080000",
      "counterpartBic": null,
      "counterpartBankName": "Commerzbank vormals Dresdner Bank",
      "counterpartMandateReference": null,
      "counterpartCustomerReference": null,
      "counterpartCreditorId": null,
      "type": "Überweisungsauftrag",
      "typeCodeZka": null,
      "typeCodeSwift": null,
      "primanota": null,
      "category": {
        "id": 404,
        "name": "Festnetz & Internet",
        "parentId": 401,
        "parentName": "Lebenshaltung",
        "isCustom": false,
        "children": null
      },
      "labels": [],
      "isPotentialDuplicate": false,
      "isNew": true,
      "importDate": "2017-05-10 17:18:41.000",
      "children": null
    },
    {
      "id": 21271023,
      "parentId": null,
      "accountId": 40345,
      "valueDate": "2014-12-28 00:00:00.000",
      "bankBookingDate": "2014-12-28 00:00:00.000",
      "finapiBookingDate": "2014-12-28 00:00:00.000",
      "amount": -806.11,
      "purpose": "Catering 17.12. Vielen Dank",
      "counterpartName": "Wirtshaus in der Au",
      "counterpartAccountNumber": "1055545",
      "counterpartIban": null,
      "counterpartBlz": "70080000",
      "counterpartBic": null,
      "counterpartBankName": "Commerzbank vormals Dresdner Bank",
      "counterpartMandateReference": null,
      "counterpartCustomerReference": null,
      "counterpartCreditorId": null,
      "type": "Überweisungsauftrag",
      "typeCodeZka": null,
      "typeCodeSwift": null,
      "primanota": null,
      "category": {
        "id": 378,
        "name": "Restaurant / Cafe / Bar",
        "parentId": 373,
        "parentName": "Freizeit, Hobbies & Soziales",
        "isCustom": false,
        "children": null
      },
      "labels": [],
      "isPotentialDuplicate": false,
      "isNew": true,
      "importDate": "2017-05-10 17:18:41.000",
      "children": null
    },
    {
      "id": 21271024,
      "parentId": null,
      "accountId": 40345,
      "valueDate": "2015-01-01 00:00:00.000",
      "bankBookingDate": "2015-01-01 00:00:00.000",
      "finapiBookingDate": "2015-01-01 00:00:00.000",
      "amount": 5421.63,
      "purpose": "Lohn und Gehalt",
      "counterpartName": "Braumüller GmbH",
      "counterpartAccountNumber": "5564789",
      "counterpartIban": null,
      "counterpartBlz": "70080000",
      "counterpartBic": null,
      "counterpartBankName": "Commerzbank vormals Dresdner Bank",
      "counterpartMandateReference": null,
      "counterpartCustomerReference": null,
      "counterpartCreditorId": null,
      "type": "Überweisungsgutschrift",
      "typeCodeZka": null,
      "typeCodeSwift": null,
      "primanota": null,
      "category": {
        "id": 323,
        "name": "Gehalt",
        "parentId": 320,
        "parentName": "Einnahmen",
        "isCustom": false,
        "children": null
      },
      "labels": [],
      "isPotentialDuplicate": false,
      "isNew": true,
      "importDate": "2017-05-10 17:18:41.000",
      "children": null
    },
    {
      "id": 21271025,
      "parentId": null,
      "accountId": 40345,
      "valueDate": "2015-01-01 00:00:00.000",
      "bankBookingDate": "2015-01-01 00:00:00.000",
      "finapiBookingDate": "2015-01-01 00:00:00.000",
      "amount": -100,
      "purpose": "GA 470/11",
      "counterpartName": "Barabhebung",
      "counterpartAccountNumber": "569",
      "counterpartIban": null,
      "counterpartBlz": "70080000",
      "counterpartBic": null,
      "counterpartBankName": "Commerzbank vormals Dresdner Bank",
      "counterpartMandateReference": null,
      "counterpartCustomerReference": null,
      "counterpartCreditorId": null,
      "type": "Überweisungsauftrag",
      "typeCodeZka": null,
      "typeCodeSwift": null,
      "primanota": null,
      "category": {
        "id": 335,
        "name": "Barauszahlung",
        "parentId": 333,
        "parentName": "Bank & Kredit",
        "isCustom": false,
        "children": null
      },
      "labels": [],
      "isPotentialDuplicate": false,
      "isNew": true,
      "importDate": "2017-05-10 17:18:41.000",
      "children": null
    },
    {
      "id": 21271026,
      "parentId": null,
      "accountId": 40345,
      "valueDate": "2015-01-02 00:00:00.000",
      "bankBookingDate": "2015-01-02 00:00:00.000",
      "finapiBookingDate": "2015-01-02 00:00:00.000",
      "amount": -48.5,
      "purpose": "Monatskarte",
      "counterpartName": "Deutsche Bahn AG",
      "counterpartAccountNumber": "69854321",
      "counterpartIban": null,
      "counterpartBlz": "70080000",
      "counterpartBic": null,
      "counterpartBankName": "Commerzbank vormals Dresdner Bank",
      "counterpartMandateReference": null,
      "counterpartCustomerReference": null,
      "counterpartCreditorId": null,
      "type": "Überweisungsauftrag",
      "typeCodeZka": null,
      "typeCodeSwift": null,
      "primanota": null,
      "category": {
        "id": 545,
        "name": "Transport",
        "parentId": 409,
        "parentName": "Reisen",
        "isCustom": false,
        "children": null
      },
      "labels": [],
      "isPotentialDuplicate": false,
      "isNew": true,
      "importDate": "2017-05-10 17:18:41.000",
      "children": null
    },
    {
      "id": 21271027,
      "parentId": null,
      "accountId": 40345,
      "valueDate": "2015-01-03 00:00:00.000",
      "bankBookingDate": "2015-01-03 00:00:00.000",
      "finapiBookingDate": "2015-01-03 00:00:00.000",
      "amount": -36.23,
      "purpose": "Vielen Dank",
      "counterpartName": "Confetti Restaurant",
      "counterpartAccountNumber": "4578522",
      "counterpartIban": null,
      "counterpartBlz": "70080000",
      "counterpartBic": null,
      "counterpartBankName": "Commerzbank vormals Dresdner Bank",
      "counterpartMandateReference": null,
      "counterpartCustomerReference": null,
      "counterpartCreditorId": null,
      "type": "Überweisungsauftrag",
      "typeCodeZka": null,
      "typeCodeSwift": null,
      "primanota": null,
      "category": {
        "id": 378,
        "name": "Restaurant / Cafe / Bar",
        "parentId": 373,
        "parentName": "Freizeit, Hobbies & Soziales",
        "isCustom": false,
        "children": null
      },
      "labels": [],
      "isPotentialDuplicate": false,
      "isNew": true,
      "importDate": "2017-05-10 17:18:41.000",
      "children": null
    },
    {
      "id": 21271028,
      "parentId": null,
      "accountId": 40345,
      "valueDate": "2015-01-04 00:00:00.000",
      "bankBookingDate": "2015-01-04 00:00:00.000",
      "finapiBookingDate": "2015-01-04 00:00:00.000",
      "amount": -259.71,
      "purpose": "Restaurantbesuch",
      "counterpartName": "Bar Centrale",
      "counterpartAccountNumber": "1245638",
      "counterpartIban": null,
      "counterpartBlz": "70080000",
      "counterpartBic": null,
      "counterpartBankName": "Commerzbank vormals Dresdner Bank",
      "counterpartMandateReference": null,
      "counterpartCustomerReference": null,
      "counterpartCreditorId": null,
      "type": "Überweisungsauftrag",
      "typeCodeZka": null,
      "typeCodeSwift": null,
      "primanota": null,
      "category": {
        "id": 378,
        "name": "Restaurant / Cafe / Bar",
        "parentId": 373,
        "parentName": "Freizeit, Hobbies & Soziales",
        "isCustom": false,
        "children": null
      },
      "labels": [],
      "isPotentialDuplicate": false,
      "isNew": true,
      "importDate": "2017-05-10 17:18:41.000",
      "children": null
    },
    {
      "id": 21271029,
      "parentId": null,
      "accountId": 40345,
      "valueDate": "2015-01-05 00:00:00.000",
      "bankBookingDate": "2015-01-05 00:00:00.000",
      "finapiBookingDate": "2015-01-05 00:00:00.000",
      "amount": 700,
      "purpose": "Umbuchung",
      "counterpartName": "DAB bank AG",
      "counterpartAccountNumber": "1324861",
      "counterpartIban": null,
      "counterpartBlz": "70080000",
      "counterpartBic": null,
      "counterpartBankName": "Commerzbank vormals Dresdner Bank",
      "counterpartMandateReference": null,
      "counterpartCustomerReference": null,
      "counterpartCreditorId": null,
      "type": "Überweisungsgutschrift",
      "typeCodeZka": null,
      "typeCodeSwift": null,
      "primanota": null,
      "category": {
        "id": 320,
        "name": "Einnahmen",
        "parentId": null,
        "parentName": null,
        "isCustom": false,
        "children": [
          323,
          324,
          325,
          326,
          327,
          330,
          526
        ]
      },
      "labels": [],
      "isPotentialDuplicate": false,
      "isNew": true,
      "importDate": "2017-05-10 17:18:41.000",
      "children": null
    },
    {
      "id": 21271030,
      "parentId": null,
      "accountId": 40345,
      "valueDate": "2015-01-06 00:00:00.000",
      "bankBookingDate": "2015-01-06 00:00:00.000",
      "finapiBookingDate": "2015-01-06 00:00:00.000",
      "amount": -400,
      "purpose": "Dauerauftrag: Sparen",
      "counterpartName": "Girokonto",
      "counterpartAccountNumber": "811346",
      "counterpartIban": null,
      "counterpartBlz": "70080000",
      "counterpartBic": null,
      "counterpartBankName": "Commerzbank vormals Dresdner Bank",
      "counterpartMandateReference": null,
      "counterpartCustomerReference": null,
      "counterpartCreditorId": null,
      "type": "Überweisungsauftrag",
      "typeCodeZka": null,
      "typeCodeSwift": null,
      "primanota": null,
      "category": {
        "id": 528,
        "name": "Sparen & Anlegen",
        "parentId": null,
        "parentName": null,
        "isCustom": false,
        "children": [
          529,
          530,
          531,
          532,
          533,
          534
        ]
      },
      "labels": [],
      "isPotentialDuplicate": false,
      "isNew": true,
      "importDate": "2017-05-10 17:18:41.000",
      "children": null
    },
    {
      "id": 21271031,
      "parentId": null,
      "accountId": 40345,
      "valueDate": "2015-01-07 00:00:00.000",
      "bankBookingDate": "2015-01-07 00:00:00.000",
      "finapiBookingDate": "2015-01-07 00:00:00.000",
      "amount": -235.11,
      "purpose": "BEITRAG KRANKENVERSICHERUNG",
      "counterpartName": "HUK-COBURG-KRANKENVERS. AG",
      "counterpartAccountNumber": "1445430",
      "counterpartIban": null,
      "counterpartBlz": "70080000",
      "counterpartBic": null,
      "counterpartBankName": "Commerzbank vormals Dresdner Bank",
      "counterpartMandateReference": null,
      "counterpartCustomerReference": null,
      "counterpartCreditorId": null,
      "type": "Überweisungsauftrag",
      "typeCodeZka": null,
      "typeCodeSwift": null,
      "primanota": null,
      "category": {
        "id": 421,
        "name": "Krankenversicherung",
        "parentId": 418,
        "parentName": "Versicherung",
        "isCustom": false,
        "children": null
      },
      "labels": [],
      "isPotentialDuplicate": false,
      "isNew": true,
      "importDate": "2017-05-10 17:18:41.000",
      "children": null
    },
    {
      "id": 21271032,
      "parentId": null,
      "accountId": 40345,
      "valueDate": "2015-01-08 00:00:00.000",
      "bankBookingDate": "2015-01-08 00:00:00.000",
      "finapiBookingDate": "2015-01-08 00:00:00.000",
      "amount": -99.99,
      "purpose": "5/12346/645",
      "counterpartName": "ALLIANZ Lebensversicherungs AG",
      "counterpartAccountNumber": "188982",
      "counterpartIban": null,
      "counterpartBlz": "70080000",
      "counterpartBic": null,
      "counterpartBankName": "Commerzbank vormals Dresdner Bank",
      "counterpartMandateReference": null,
      "counterpartCustomerReference": null,
      "counterpartCreditorId": null,
      "type": "Überweisungsauftrag",
      "typeCodeZka": null,
      "typeCodeSwift": null,
      "primanota": null,
      "category": {
        "id": 422,
        "name": "Risiko-Lebensversicherung",
        "parentId": 418,
        "parentName": "Versicherung",
        "isCustom": false,
        "children": null
      },
      "labels": [],
      "isPotentialDuplicate": false,
      "isNew": true,
      "importDate": "2017-05-10 17:18:41.000",
      "children": null
    },
    {
      "id": 21271033,
      "parentId": null,
      "accountId": 40345,
      "valueDate": "2015-01-09 00:00:00.000",
      "bankBookingDate": "2015-01-09 00:00:00.000",
      "finapiBookingDate": "2015-01-09 00:00:00.000",
      "amount": 37.5,
      "purpose": "DIVIDENDE 2014",
      "counterpartName": "VB Musterstadt",
      "counterpartAccountNumber": "999914",
      "counterpartIban": null,
      "counterpartBlz": "70080000",
      "counterpartBic": null,
      "counterpartBankName": "Commerzbank vormals Dresdner Bank",
      "counterpartMandateReference": null,
      "counterpartCustomerReference": null,
      "counterpartCreditorId": null,
      "type": "Überweisungsgutschrift",
      "typeCodeZka": null,
      "typeCodeSwift": null,
      "primanota": null,
      "category": {
        "id": 528,
        "name": "Sparen & Anlegen",
        "parentId": null,
        "parentName": null,
        "isCustom": false,
        "children": [
          529,
          530,
          531,
          532,
          533,
          534
        ]
      },
      "labels": [],
      "isPotentialDuplicate": false,
      "isNew": true,
      "importDate": "2017-05-10 17:18:41.000",
      "children": null
    },
    {
      "id": 21271034,
      "parentId": null,
      "accountId": 40345,
      "valueDate": "2015-01-10 00:00:00.000",
      "bankBookingDate": "2015-01-10 00:00:00.000",
      "finapiBookingDate": "2015-01-10 00:00:00.000",
      "amount": -50,
      "purpose": "Gewinnsparen",
      "counterpartName": "VB Musterstadt",
      "counterpartAccountNumber": "39985",
      "counterpartIban": null,
      "counterpartBlz": "70080000",
      "counterpartBic": null,
      "counterpartBankName": "Commerzbank vormals Dresdner Bank",
      "counterpartMandateReference": null,
      "counterpartCustomerReference": null,
      "counterpartCreditorId": null,
      "type": "Überweisungsauftrag",
      "typeCodeZka": null,
      "typeCodeSwift": null,
      "primanota": null,
      "category": {
        "id": 333,
        "name": "Bank & Kredit",
        "parentId": null,
        "parentName": null,
        "isCustom": false,
        "children": [
          334,
          335,
          338,
          340,
          527
        ]
      },
      "labels": [],
      "isPotentialDuplicate": false,
      "isNew": true,
      "importDate": "2017-05-10 17:18:41.000",
      "children": null
    },
    {
      "id": 21271035,
      "parentId": null,
      "accountId": 40345,
      "valueDate": "2015-01-11 00:00:00.000",
      "bankBookingDate": "2015-01-11 00:00:00.000",
      "finapiBookingDate": "2015-01-11 00:00:00.000",
      "amount": 3,
      "purpose": "HERZLICHEN GLÜCKWUNSCH ZU IHREM GEWINN LOS 0815",
      "counterpartName": "VB Musterstadt",
      "counterpartAccountNumber": "39985",
      "counterpartIban": null,
      "counterpartBlz": "70080000",
      "counterpartBic": null,
      "counterpartBankName": "Commerzbank vormals Dresdner Bank",
      "counterpartMandateReference": null,
      "counterpartCustomerReference": null,
      "counterpartCreditorId": null,
      "type": "Überweisungsgutschrift",
      "typeCodeZka": null,
      "typeCodeSwift": null,
      "primanota": null,
      "category": {
        "id": 320,
        "name": "Einnahmen",
        "parentId": null,
        "parentName": null,
        "isCustom": false,
        "children": [
          323,
          324,
          325,
          326,
          327,
          330,
          526
        ]
      },
      "labels": [],
      "isPotentialDuplicate": false,
      "isNew": true,
      "importDate": "2017-05-10 17:18:41.000",
      "children": null
    },
    {
      "id": 21271036,
      "parentId": null,
      "accountId": 40345,
      "valueDate": "2015-01-12 00:00:00.000",
      "bankBookingDate": "2015-01-12 00:00:00.000",
      "finapiBookingDate": "2015-01-12 00:00:00.000",
      "amount": -1325,
      "purpose": "Miete Agnestr. 46",
      "counterpartName": "Peter Schaller",
      "counterpartAccountNumber": "777770",
      "counterpartIban": null,
      "counterpartBlz": "70080000",
      "counterpartBic": null,
      "counterpartBankName": "Commerzbank vormals Dresdner Bank",
      "counterpartMandateReference": null,
      "counterpartCustomerReference": null,
      "counterpartCreditorId": null,
      "type": "Überweisungsauftrag",
      "typeCodeZka": null,
      "typeCodeSwift": null,
      "primanota": null,
      "category": {
        "id": 550,
        "name": "Miete / Wohngeld",
        "parentId": 426,
        "parentName": "Wohnen",
        "isCustom": false,
        "children": null
      },
      "labels": [],
      "isPotentialDuplicate": false,
      "isNew": true,
      "importDate": "2017-05-10 17:18:41.000",
      "children": null
    },
    {
      "id": 21271037,
      "parentId": null,
      "accountId": 40345,
      "valueDate": "2015-01-13 00:00:00.000",
      "bankBookingDate": "2015-01-13 00:00:00.000",
      "finapiBookingDate": "2015-01-13 00:00:00.000",
      "amount": -264.51,
      "purpose": "Vielen Dank",
      "counterpartName": "Gasthaus Chinesischer Turm",
      "counterpartAccountNumber": "356872",
      "counterpartIban": null,
      "counterpartBlz": "70080000",
      "counterpartBic": null,
      "counterpartBankName": "Commerzbank vormals Dresdner Bank",
      "counterpartMandateReference": null,
      "counterpartCustomerReference": null,
      "counterpartCreditorId": null,
      "type": "Überweisungsauftrag",
      "typeCodeZka": null,
      "typeCodeSwift": null,
      "primanota": null,
      "category": {
        "id": 378,
        "name": "Restaurant / Cafe / Bar",
        "parentId": 373,
        "parentName": "Freizeit, Hobbies & Soziales",
        "isCustom": false,
        "children": null
      },
      "labels": [],
      "isPotentialDuplicate": false,
      "isNew": true,
      "importDate": "2017-05-10 17:18:41.000",
      "children": null
    }
  ],
  "paging": {
    "page": 1,
    "perPage": 20,
    "pageCount": 46,
    "totalCount": 912
  },
  "income": 153944.36,
  "spending": -153986.17,
  "balance": -41.81
}
